Load Circuit Info — load_circuits • f1dataR
…
    Arguments

    season
number from 1950 to current season (defaults to current season).

    Value

A tibble with one row per circuit

    Examples

# Load the circuits used this season:
load_circuits()
#> # A tibble: 22 × 6
#>    circuit_id  circuit_name                   lat      long     locality country
#>    <chr>       <chr>                          <chr>    <chr>    <chr>    <chr>  
#>  1 albert_park Albert Park Grand Prix Circuit -37.8497 144.968  Melbour… Austra…
#>  2 americas    Circuit of the Americas        30.1328  -97.6411 Austin   USA    
#>  3 bahrain     Bahrain International Circuit  26.0325  50.5106  Sakhir   Bahrain
#>  4 baku        Baku City Circuit              40.3725  49.8533  Baku     Azerba…
#>  5 catalunya   Circuit de Barcelona-Catalunya 41.57    2.26111  Montmeló Spain  
#>  6 hungaroring Hungaroring                    47.5789  19.2486  Budapest Hungary
#>  7 interlagos  Autódromo José Carlos Pace     -23.7036 -46.6997 São Pau… Brazil 
#>  8 jeddah      Jeddah Corniche Circuit        21.6319  39.1044  Jeddah   Saudi …
#>  9 losail      Losail International Circuit   25.49    51.4542  Al Daay… Qatar  
#> 10 marina_bay  Marina Bay Street Circuit      1.2914   103.864  Marina … Singap…
#> # ℹ 12 more rows
…
