Load Lap by Lap Time Data — load_laps • f1dataR
…
    Value

A tibble with columns driver_id (unique and recurring), position
during lap, time (in clock form), lap number, time (in seconds), and season.

    Examples

# Load laps from the last race of 2021
load_laps(2021, "last")
#> # A tibble: 998 × 6
#>    driver_id      position time       lap time_sec season
#>    <chr>          <chr>    <chr>    <int>    <dbl>  <dbl>
#>  1 hamilton       1        1:31.686     1     91.7   2021
#>  2 max_verstappen 2        1:32.800     1     92.8   2021
#>  3 perez          3        1:33.756     1     93.8   2021
#>  4 sainz          4        1:34.819     1     94.8   2021
#>  5 norris         5        1:35.658     1     95.7   2021
#>  6 leclerc        6        1:36.143     1     96.1   2021
#>  7 tsunoda        7        1:36.600     1     96.6   2021
#>  8 bottas         8        1:37.280     1     97.3   2021
#>  9 ocon           9        1:37.772     1     97.8   2021
#> 10 ricciardo      10       1:38.267     1     98.3   2021
#> # ℹ 988 more rows

# Load laps from the third race of 1999
load_laps(1999, 3)
#> # A tibble: 934 × 6
#>    driver_id          position time       lap time_sec season
#>    <chr>              <chr>    <chr>    <int>    <dbl>  <dbl>
#>  1 hakkinen           1        1:32.202     1     92.2   1999
#>  2 coulthard          2        1:33.957     1     94.0   1999
#>  3 michael_schumacher 3        1:35.002     1     95.0   1999
#>  4 irvine             4        1:35.852     1     95.9   1999
#>  5 barrichello        5        1:36.408     1     96.4   1999
#>  6 frentzen           6        1:37.660     1     97.7   1999
#>  7 ralf_schumacher    7        1:38.405     1     98.4   1999
#>  8 damon_hill         8        1:39.243     1     99.2   1999
#>  9 alesi              9        1:39.616     1     99.6   1999
#> 10 herbert            10       1:40.128     1    100.    1999
#> # ℹ 924 more rows
…
