Load Pitstop Data — load_pitstops • f1dataR
…
    Value

A tibble with columns driver_id, lap, stop (number), time (of day),
and stop duration

    Examples

# Load pitstops from the first race of 2023:
load_pitstops(season = 2023, round = 1)
#> # A tibble: 50 × 5
#>    driver_id  lap   stop  time     duration
#>    <chr>      <chr> <chr> <chr>    <chr>   
#>  1 gasly      9     1     18:18:56 25.885  
#>  2 norris     10    1     18:20:31 32.766  
#>  3 tsunoda    10    1     18:20:34 25.267  
#>  4 bottas     11    1     18:22:06 25.399  
#>  5 albon      11    1     18:22:12 25.054  
#>  6 hulkenberg 11    1     18:22:21 26.075  
#>  7 de_vries   11    1     18:22:21 25.018  
#>  8 hamilton   12    1     18:23:40 24.682  
#>  9 ocon       12    1     18:23:50 24.966  
#> 10 sargeant   12    1     18:23:55 25.600  
#> # ℹ 40 more rows
…
