Load Driver Info — load_drivers • f1dataR
…
# Load the drivers who participated in the first year of Formula 1:
load_drivers(1950)
#> # A tibble: 40 × 5
#>    driver_id    given_name family_name  nationality date_of_birth
#>    <chr>        <chr>      <chr>        <chr>       <chr>        
#>  1 ader         Walt       Ader         American    1913-12-15   
#>  2 agabashian   Fred       Agabashian   American    1913-08-21   
#>  3 ascari       Alberto    Ascari       Italian     1918-07-13   
#>  4 banks        Henry      Banks        American    1913-06-14   
#>  5 bettenhausen Tony       Bettenhausen American    1916-09-12   
#>  6 biondetti    Clemente   Biondetti    Italian     1898-08-18   
#>  7 bira         Prince     Bira         Thai        1914-07-15   
#>  8 bonetto      Felice     Bonetto      Italian     1903-06-09   
#>  9 branca       Toni       Branca       Swiss       1916-09-15   
#> 10 walt_brown   Walt       Brown        American    1911-12-30   
#> # ℹ 30 more rows
…
