Load Schedule — load_schedule • f1dataR
…
    Arguments

    season
number from 1950 to current season (defaults to current season). 'current' also accepted.

    Value

A tibble with one row per circuit in season

    Examples

# Load this year's schedule:
load_schedule()
#> # A tibble: 22 × 11
#>    season round race_name   circuit_id circuit_name lat   long  locality country
#>    <chr>  <chr> <chr>       <chr>      <chr>        <chr> <chr> <chr>    <chr>  
#>  1 2023   1     Bahrain Gr… bahrain    Bahrain Int… 26.0… 50.5… Sakhir   Bahrain
#>  2 2023   2     Saudi Arab… jeddah     Jeddah Corn… 21.6… 39.1… Jeddah   Saudi …
#>  3 2023   3     Australian… albert_pa… Albert Park… -37.… 144.… Melbour… Austra…
#>  4 2023   4     Azerbaijan… baku       Baku City C… 40.3… 49.8… Baku     Azerba…
#>  5 2023   5     Miami Gran… miami      Miami Inter… 25.9… -80.… Miami    USA    
#>  6 2023   6     Monaco Gra… monaco     Circuit de … 43.7… 7.42… Monte-C… Monaco 
#>  7 2023   7     Spanish Gr… catalunya  Circuit de … 41.57 2.26… Montmeló Spain  
#>  8 2023   8     Canadian G… villeneuve Circuit Gil… 45.5  -73.… Montreal Canada 
#>  9 2023   9     Austrian G… red_bull_… Red Bull Ri… 47.2… 14.7… Spielbe… Austria
#> 10 2023   10    British Gr… silversto… Silverstone… 52.0… -1.0… Silvers… UK     
#> # ℹ 12 more rows
#> # ℹ 2 more variables: date <chr>, time <chr>
…
