Introduction • f1dataR
…
      Source: vignettes/introduction.Rmd
      introduction.Rmd

f1dataR serves as a tool to get neatly organized Formula 1 data into
your R environment. Here we will go over the basic functions to
understand how the package works.

The most sought-after aspect of F1 data is telemetry data. Let’s get
Leclerc’s fastest lap from the first race of 2022:

library(f1dataR)
#> Loading required package: reticulate

load_driver_telemetry(2022, 1, driver = 'LEC', fastest_only = T)
#> # A tibble: 706 × 19
#>    date                session_time driver_ahead distance_to_driver_ahead
#>    <dttm>              <dttm>       <chr>                           <dbl>
#>  1 2022-03-20 12:30:01 NA           ""                                NaN
#>  2 2022-03-20 12:30:01 NA           ""                                NaN
#>  3 2022-03-20 12:30:01 NA           ""                                NaN
#>  4 2022-03-20 12:30:01 NA           ""                                NaN
#>  5 2022-03-20 12:30:01 NA           ""                                NaN
#>  6 2022-03-20 12:30:01 NA           ""                                NaN
#>  7 2022-03-20 12:30:02 NA           ""                                NaN
#>  8 2022-03-20 12:30:02 NA           ""                                NaN
#>  9 2022-03-20 12:30:02 NA           ""                                NaN
#> 10 2022-03-20 12:30:02 NA           ""                                NaN
#> # ℹ 696 more rows
#> # ℹ 15 more variables: time <dttm>, rpm <dbl>, speed <dbl>, n_gear <dbl>,
#> #   throttle <dbl>, brake <lgl>, drs <dbl>, source <chr>,
#> #   relative_distance <dbl>, status <chr>, x <dbl>, y <dbl>, z <dbl>,
#> #   distance <dbl>, driver_code <chr>
…
