Load Schedule — load_schedule • f1dataR
…
    Arguments

    season
number from 1950 to current season (defaults to current season). 'current' also accepted.

    Value

A tibble with one row per circuit in season

    Examples

# Load this year's schedule:
load_schedule()
#> # A tibble: 22 × 11
#>    season round race_n…¹ circu…² circu…³ lat   long  local…⁴ country date  time 
#>    <chr>  <chr> <chr>    <chr>   <chr>   <chr> <chr> <chr>   <chr>   <chr> <chr>
#>  1 2023   1     Bahrain… bahrain Bahrai… 26.0… 50.5… Sakhir  Bahrain 2023… 15:0…
#>  2 2023   2     Saudi A… jeddah  Jeddah… 21.6… 39.1… Jeddah  Saudi … 2023… 17:0…
#>  3 2023   3     Austral… albert… Albert… -37.… 144.… Melbou… Austra… 2023… 05:0…
#>  4 2023   4     Azerbai… baku    Baku C… 40.3… 49.8… Baku    Azerba… 2023… 11:0…
#>  5 2023   5     Miami G… miami   Miami … 25.9… -80.… Miami   USA     2023… 19:3…
#>  6 2023   6     Monaco … monaco  Circui… 43.7… 7.42… Monte-… Monaco  2023… 13:0…
#>  7 2023   7     Spanish… catalu… Circui… 41.57 2.26… Montme… Spain   2023… 13:0…
#>  8 2023   8     Canadia… villen… Circui… 45.5  -73.… Montre… Canada  2023… 18:0…
#>  9 2023   9     Austria… red_bu… Red Bu… 47.2… 14.7… Spielb… Austria 2023… 13:0…
#> 10 2023   10    British… silver… Silver… 52.0… -1.0… Silver… UK      2023… 14:0…
#> # … with 12 more rows, and abbreviated variable names ¹​race_name, ²​circuit_id,
#> #   ³​circuit_name, ⁴​locality
…
