Load Results — load_results • f1dataR
…
# Load results from the first race of 1995
load_results(1995, 1)
#> # A tibble: 26 × 8
#>    driver_id          constructor_id position points grid  laps  status   gap   
#>    <chr>              <chr>          <chr>    <chr>  <chr> <chr> <chr>    <chr> 
#>  1 michael_schumacher benetton       1        10     2     71    Finished 1:38:…
#>  2 coulthard          williams       2        6      3     71    Finished +11.0…
#>  3 berger             ferrari        3        4      5     70    +1 Lap   NA    
#>  4 hakkinen           mclaren        4        3      7     70    +1 Lap   NA    
#>  5 alesi              ferrari        5        2      6     70    +1 Lap   NA    
#>  6 blundell           mclaren        6        1      9     70    +1 Lap   NA    
#>  7 salo               tyrrell        7        0      12    69    +2 Laps  NA    
#>  8 suzuki             ligier         8        0      15    69    +2 Laps  NA    
#>  9 montermini         pacific        9        0      22    65    +6 Laps  NA    
#> 10 diniz              forti          10       0      25    64    +7 Laps  NA    
#> # … with 16 more rows

# Load results from the last race of 1963
load_results(1963, 'last')
#> # A tibble: 23 × 8
#>    driver_id     constructor_id position points grid  laps  status   gap      
#>    <chr>         <chr>          <chr>    <chr>  <chr> <chr> <chr>    <chr>    
#>  1 clark         lotus-climax   1        9      1     85    Finished 2:10:36.9
#>  2 gurney        brabham        2        6      3     85    Finished +1:06.8  
#>  3 hill          brm            3        4      6     84    +1 Lap   NA       
#>  4 mclaren       cooper-climax  4        3      9     84    +1 Lap   NA       
#>  5 bandini       ferrari        5        2      5     84    +1 Lap   NA       
#>  6 bonnier       cooper-climax  6        1      11    83    +2 Laps  NA       
#>  7 maggs         cooper-climax  7        0      10    82    +3 Laps  NA       
#>  8 trevor_taylor lotus-climax   8        0      8     81    +4 Laps  NA       
#>  9 love          cooper-climax  9        0      13    80    +5 Laps  NA       
#> 10 beaufort      porsche        10       0      20    79    +6 Laps  NA       
#> # … with 13 more rows
…
